Text Analytics
…
Pre-processing Data for Analysis

#Tokenizing
tidy_text <- data %>% 
  unnest_tokens(word, q_subject)

tidy_text <- tidy_text %>%
  anti_join(stop_words)

## Joining, by = "word"

tidy_text %>%
  count(word, sort = TRUE)

## # A tibble: 4,829 x 2
##    word             n
##    <chr>        <int>
##  1 im             473
##  2 dont           375
##  3 boyfriend      348
##  4 feel           298
##  5 wrong          284
##  6 depression     265
##  7 relationship   264
##  8 dream          258
##  9 bipolar        218
## 10 depressed      208
## # ... with 4,819 more rows
…
#Stemming
tidy_text <- data %>%
  unnest_tokens(word, q_subject) %>%
  mutate(word = wordStem(word))

tidy_text <- tidy_text %>%
  anti_join(stop_words)

## Joining, by = "word"

tidy_text %>%
  count(word, sort = TRUE)

## # A tibble: 3,798 x 2
##    word             n
##    <chr>        <int>
##  1 thi            499
##  2 depress        490
##  3 im             473
##  4 feel           446
##  5 dont           375
##  6 boyfriend      373
##  7 dream          349
##  8 doe            346
##  9 relationship   299
## 10 friend         287
## # ... with 3,788 more rows
…
tidy_text <- data %>% 
  unnest_tokens(word, q_content)

data(stop_words)

tidy_text <- tidy_text %>%
  anti_join(stop_words)

## Joining, by = "word"

tidy_text %>%
  count(word, sort = TRUE)

## # A tibble: 46,081 x 2
##    word        n
##    <chr>   <int>
##  1 im      13012
##  2 dont    11197
##  3 feel     9168
##  4 time     6697
##  5 life     4464
##  6 ive      4403
##  7 people   4233
##  8 told     4150
##  9 friends  4045
## 10 love     3281
## # ... with 46,071 more rows
…
data(stop_words)

tidy_text <- tidy_text %>%
  anti_join(stop_words)

## Joining, by = "word"

tidy_text %>%
  count(word, sort = TRUE)

## # A tibble: 36,404 x 2
##    word       n
##    <chr>  <int>
##  1 wa     21437
##  2 thi    14961
##  3 im     13016
##  4 feel   12905
##  5 dont   11197
##  6 time    8755
##  7 becaus  8104
##  8 ha      7340
##  9 realli  6780
## 10 thei    6698
## # ... with 36,394 more rows
…
Now, working on the Answer column to find some insightful meaning from the one who replied back

tidy_text <- data %>%
  unnest_tokens(word, answers)

tidy_text <- tidy_text %>%
  anti_join(stop_words)

## Joining, by = "word"

tidy_text %>%
  count(word, sort = TRUE)

## # A tibble: 54,645 x 2
##    word             n
##    <chr>        <int>
##  1 dont         18010
##  2 feel         13279
##  3 people       10334
##  4 youre        10162
##  5 time          9729
##  6 im            9664
##  7 life          9169
##  8 ni            8913
##  9 talk          6245
## 10 relationship  5557
## # ... with 54,635 more rows
…
rowTotals <- apply(dtm , 1, sum)
dtm.new   <- dtm[rowTotals> 0, ]
lda <- LDA(dtm.new, k = 4)

lda_td <- tidy(lda)
lda_td

## # A tibble: 57,032 x 3
##    topic term          beta
##    <int> <chr>        <dbl>
##  1     1 aboven   6.83e-  5
##  2     2 aboven   7.83e- 11
##  3     3 aboven   2.13e-  5
##  4     4 aboven   1.06e-123
##  5     1 account  7.68e-  5
##  6     2 account  1.20e-  4
##  7     3 account  2.31e- 26
##  8     4 account  3.33e-  4
##  9     1 actually 8.77e-  4
## 10     2 actually 9.42e-  4
## # ... with 57,022 more rows
…
lda <- LDA(dtm.new, k = 10)
library(tidytext)
lda_td <- tidy(lda)
lda_td

## # A tibble: 142,580 x 3
##    topic term        beta
##    <int> <chr>      <dbl>
##  1     1 aboven 1.01e-173
##  2     2 aboven 4.65e-183
##  3     3 aboven 8.48e-  5
##  4     4 aboven 9.16e-  5
##  5     5 aboven 7.53e-177
##  6     6 aboven 2.64e-182
##  7     7 aboven 4.76e-179
##  8     8 aboven 6.25e- 16
##  9     9 aboven 5.99e-176
## 10    10 aboven 6.26e-  5
## # ... with 142,570 more rows
…
#doing same thing for answers
data <- data[1:1000,] # We perform LDA on the rows 1 through 1000 in the data.
corpus <- Corpus(VectorSource(data$answers), readerControl=list(language="en"))
dtm <- DocumentTermMatrix(corpus, control = list(stopwords = TRUE, minWordLength = 2, removeNumbers = TRUE, removePunctuation = TRUE,  stemDocument = TRUE))
rowTotals <- apply(dtm , 1, sum) #Find the sum of words in each Document
dtm.new   <- dtm[rowTotals> 0, ] #remove all docs without words
lda <- LDA(dtm.new, k = 10)

lda_td <- tidy(lda)
lda_td

## # A tibble: 129,910 x 3
##    topic term        beta
##    <int> <chr>      <dbl>
##  1     1 actions 3.04e- 4
##  2     2 actions 8.78e-11
##  3     3 actions 4.81e- 4
##  4     4 actions 5.66e- 4
##  5     5 actions 2.68e- 4
##  6     6 actions 6.10e- 4
##  7     7 actions 3.26e- 6
##  8     8 actions 2.91e- 4
##  9     9 actions 1.62e-19
## 10    10 actions 2.81e- 4
## # ... with 129,900 more rows
…
#for K=2

lda <- LDA(dtm.new, k = 2) # k is the number of topics to be found.

library(tidytext)
lda_td <- tidy(lda)
lda_td

## # A tibble: 25,982 x 3
##    topic term          beta
##    <int> <chr>        <dbl>
##  1     1 actions  0.000395 
##  2     2 actions  0.000187 
##  3     1 activity 0.000210 
##  4     2 activity 0.0000219
##  5     1 advice   0.00167  
##  6     2 advice   0.000692 
##  7     1 affected 0.0000904
##  8     2 affected 0.000210 
##  9     1 also     0.00810  
## 10     2 also     0.00439  
## # ... with 25,972 more rows
…
#---------------------------------------
#for k=8
lda <- LDA(dtm.new, k = 8) # k is the number of topics to be found.

library(tidytext)
lda_td <- tidy(lda)
lda_td

## # A tibble: 103,928 x 3
##    topic term         beta
##    <int> <chr>       <dbl>
##  1     1 actions  8.37e- 5
##  2     2 actions  2.11e- 4
##  3     3 actions  8.35e- 4
##  4     4 actions  2.38e- 4
##  5     5 actions  3.70e- 4
##  6     6 actions  2.65e- 4
##  7     7 actions  3.65e- 4
##  8     8 actions  8.35e-13
##  9     1 activity 2.53e- 4
## 10     2 activity 1.21e- 4
## # ... with 103,918 more rows
…
#---------------------------------------
#for k=11
lda <- LDA(dtm.new, k = 11) # k is the number of topics to be found.

library(tidytext)
lda_td <- tidy(lda)
lda_td

## # A tibble: 142,901 x 3
##    topic term        beta
##    <int> <chr>      <dbl>
##  1     1 actions 2.80e- 6
##  2     2 actions 8.35e-29
##  3     3 actions 2.56e- 4
##  4     4 actions 1.54e- 4
##  5     5 actions 4.28e- 4
##  6     6 actions 6.76e- 4
##  7     7 actions 1.94e- 4
##  8     8 actions 3.78e- 4
##  9     9 actions 3.85e-14
## 10    10 actions 4.97e- 4
## # ... with 142,891 more rows
…
#---------------------------------------
#for k=14
lda <- LDA(dtm.new, k = 14) # k is the number of topics to be found.

library(tidytext)
lda_td <- tidy(lda)
lda_td

## # A tibble: 181,874 x 3
##    topic term         beta
##    <int> <chr>       <dbl>
##  1     1 actions 2.39e-  4
##  2     2 actions 1.01e-  6
##  3     3 actions 4.52e-  4
##  4     4 actions 3.62e-  4
##  5     5 actions 1.95e-  4
##  6     6 actions 2.99e-171
##  7     7 actions 6.82e-  4
##  8     8 actions 3.76e-  4
##  9     9 actions 3.78e-  4
## 10    10 actions 2.67e-  4
## # ... with 181,864 more rows
…
